module gitlab.com/gitlab-com/create-stage/code-creation/repository-x-ray

go 1.22

require (
	github.com/joho/godotenv v1.5.1
	github.com/stretchr/testify v1.8.4
	gopkg.in/yaml.v3 v3.0.1
)

require (
	github.com/kr/text v0.2.0 // indirect
	go.uber.org/goleak v1.3.0
)

require (
	github.com/davecgh/go-spew v1.1.1 // indirect
	github.com/pmezard/go-difflib v1.0.0 // indirect
	golang.org/x/mod v0.15.0
)
